{
  "$schema": "./node_modules/@angular-devkit/architect/src/builders-schema.json",
  "builders": {
    "browser": {
      "implementation": "./custom-builder.js",
      "schema": "./node_modules/@angular-devkit/build-angular/src/builders/browser/schema.json",
      "description": "Replaces closure translation variables before obfuscation to ensure a reproducible build."
    }
  }
}